{
  "parent": "minecraft:recipes/root",
  "rewards": {
    "recipes": [
      "grapple_hooks:hook_iron"
    ]
  },
  "criteria": {
    "has_previous": {
      "trigger": "minecraft:inventory_changed",
      "conditions": {
        "items": [
          {
            "item": "grapple_hooks:hook_stone"
          }
        ]
      }
    },
    "has_the_recipe": {
      "trigger": "minecraft:recipe_unlocked",
      "conditions": {
        "recipe": "grapple_hooks:hook_iron"
      }
    }
  },
  "requirements": [
    [
      "has_previous",
      "has_the_recipe"
    ]
  ]
}